MA [46]15 Final Project - Team 4 - Analysis
…
             Length Class      Mode
lvl           0     -none-     NULL
spec          7     linear_reg list
fit          13     lm         list
preproc       1     -none-     list
elapsed       1     -none-     list
censor_probs  0     -none-     list

# A tibble: 1 × 12
  r.squared adj.r.squared sigma statistic  p.value    df logLik   AIC   BIC
      <dbl>         <dbl> <dbl>     <dbl>    <dbl> <dbl>  <dbl> <dbl> <dbl>
1     0.730         0.727 0.128      233. 3.54e-26     1   56.8 -108. -100.
# ℹ 3 more variables: deviance <dbl>, df.residual <int>, nobs <int>

# A tibble: 177 × 7
     .pred   .resid iso_code mean_primary_completion_rate mean_educ_years_20_24
     <dbl>    <dbl> <chr>                           <dbl>                 <dbl>
 1   0.451   0.0594 AFG                             0.510                  4.55
 2   0.579  -0.0591 AGO                             0.519                  6.34
 3   0.867   0.107  ALB                             0.974                 10.4 
 4 NaN     NaN      ARE                           NaN                    NaN   
 5   0.939   0.0237 ARG                             0.963                 11.4 
 6   0.895   0.0996 ARM                             0.994                 10.8 
 7   1.01   -0.0179 AUS                             0.993                 12.4 
 8 NaN     NaN      AUT                           NaN                    NaN   
 9   0.897   0.0790 AZE                             0.975                 10.8 
10   0.430  -0.0486 BDI                             0.382                  4.26
# ℹ 167 more rows
# ℹ 2 more variables: attend_higher_education <dbl>, count <int>
…
