MA [46]15 Final Project - Team 4 - Data
…
ℹ Use `spec()` to retrieve the full column specification for this data.
ℹ Specify the column types or set `show_col_types = FALSE` to quiet this message.

continent <- continent|>
  rename(
    country = name
  )
continent

# A tibble: 249 × 11
   country   `alpha-2` `alpha-3` `country-code` `iso_3166-2` region `sub-region`
   <chr>     <chr>     <chr>              <dbl> <chr>        <chr>  <chr>       
 1 Afghanis… AF        AFG                    4 ISO 3166-2:… Asia   Southern As…
 2 Åland Is… AX        ALA                  248 ISO 3166-2:… Europe Northern Eu…
 3 Albania   AL        ALB                    8 ISO 3166-2:… Europe Southern Eu…
 4 Algeria   DZ        DZA                   12 ISO 3166-2:… Africa Northern Af…
 5 American… AS        ASM                   16 ISO 3166-2:… Ocean… Polynesia   
 6 Andorra   AD        AND                   20 ISO 3166-2:… Europe Southern Eu…
 7 Angola    AO        AGO                   24 ISO 3166-2:… Africa Sub-Saharan…
 8 Anguilla  AI        AIA                  660 ISO 3166-2:… Ameri… Latin Ameri…
 9 Antarcti… AQ        ATA                   10 ISO 3166-2:… <NA>   <NA>        
10 Antigua … AG        ATG                   28 ISO 3166-2:… Ameri… Latin Ameri…
# ℹ 239 more rows
# ℹ 4 more variables: `intermediate-region` <chr>, `region-code` <dbl>,
#   `sub-region-code` <dbl>, `intermediate-region-code` <dbl>
…
