MA [46]15 Final Project - Team 4 - Data Exploration
…
Ethnicity_mean_edu_years

# A tibble: 631 × 4
   region Ethnicity                     mean_educ_years count_non_missing
   <chr>  <chr>                                   <dbl>             <int>
 1 Africa Acholi                                NaN                     0
 2 Africa Adamaoua Oubangui                       5.40                  1
 3 Africa Adja                                    3.87                  3
 4 Africa Adja & Apparentes                     NaN                     0
 5 Africa Adja Ewe                              NaN                     0
 6 Africa Adja Ewe/Mina                           7.82                  1
 7 Africa Affar                                   0.903                 2
 8 Africa Affar / Adal, Danakil, Denkel           0.488                 1
 9 Africa African                                 9.24                  1
10 Africa Afrikaans                              10.8                   1
# ℹ 621 more rows
…
Region_mean_edu_years

# A tibble: 1,344 × 4
   region Region      mean_educ_years count_non_missing
   <chr>  <chr>                 <dbl>             <int>
 1 Africa Abia                 NaN                    0
 2 Africa Adamaoua               5.12                 2
 3 Africa Adamawa              NaN                    0
 4 Africa Addis Ababa            8.59                 3
 5 Africa Adrar                NaN                    0
 6 Africa Afar                   2.34                 3
 7 Africa Agadez                 3.06                 2
 8 Africa Akwa Ibom            NaN                    0
 9 Africa Al Gadarif           NaN                    0
10 Africa Al Gazira            NaN                    0
# ℹ 1,334 more rows
…
Wealth_mean_edu_years

# A tibble: 30 × 4
   region Wealth     mean_educ_years count_non_missing
   <chr>  <chr>                <dbl>             <int>
 1 Africa Quintile 1            3.51                72
 2 Africa Quintile 2            4.56                72
 3 Africa Quintile 3            5.55                72
 4 Africa Quintile 4            6.88                72
 5 Africa Quintile 5            9.32                72
 6 Asia   Quintile 1            7.11                46
 7 Asia   Quintile 2            8.21                46
 8 Asia   Quintile 3            9.00                46
 9 Asia   Quintile 4           10.0                 46
10 Asia   Quintile 5           11.6                 46
# ℹ 20 more rows
…
Religion_mean_edu_years

# A tibble: 120 × 4
   region Religion                 mean_educ_years count_non_missing
   <chr>  <chr>                              <dbl>             <int>
 1 Africa .                                   6.95                 4
 2 Africa Adventist                           5.58                 2
 3 Africa Adventist/Jehova                    7.50                 1
 4 Africa Anglican                            7.12                 5
 5 Africa Animist                             3.76                 3
 6 Africa Animiste/Pas De Religion          NaN                    0
 7 Africa Apostolic Sect                      8.71                 4
 8 Africa Armee De Salut                    NaN                    0
 9 Africa Assemblee De Dieu                 NaN                    0
10 Africa Assembly Of God                     7.53                 2
# ℹ 110 more rows
…
