MA [46]15 Final Project - Team 4 - test
…
ℹ Use `spec()` to retrieve the full column specification for this data.
ℹ Specify the column types or set `show_col_types = FALSE` to quiet this message.

continent <- continent|>
  rename(
    country = name
  )
continent

# A tibble: 249 × 11
   country   `alpha-2` `alpha-3` `country-code` `iso_3166-2` region `sub-region`
   <chr>     <chr>     <chr>              <dbl> <chr>        <chr>  <chr>       
 1 Afghanis… AF        AFG                    4 ISO 3166-2:… Asia   Southern As…
 2 Åland Is… AX        ALA                  248 ISO 3166-2:… Europe Northern Eu…
 3 Albania   AL        ALB                    8 ISO 3166-2:… Europe Southern Eu…
 4 Algeria   DZ        DZA                   12 ISO 3166-2:… Africa Northern Af…
 5 American… AS        ASM                   16 ISO 3166-2:… Ocean… Polynesia   
 6 Andorra   AD        AND                   20 ISO 3166-2:… Europe Southern Eu…
 7 Angola    AO        AGO                   24 ISO 3166-2:… Africa Sub-Saharan…
 8 Anguilla  AI        AIA                  660 ISO 3166-2:… Ameri… Latin Ameri…
 9 Antarcti… AQ        ATA                   10 ISO 3166-2:… <NA>   <NA>        
10 Antigua … AG        ATG                   28 ISO 3166-2:… Ameri… Latin Ameri…
# ℹ 239 more rows
# ℹ 4 more variables: `intermediate-region` <chr>, `region-code` <dbl>,
#   `sub-region-code` <dbl>, `intermediate-region-code` <dbl>

merged_data <- merge(data, continent, by = "country")

merged_data <- merged_data |> rename(sub_region = `sub-region`)

afg <- data |>
  filter(iso_code == 'AFG')
afg

# A tibble: 868 × 86
   iso_code region_group  income_group country survey  year level grade category
   <chr>    <chr>         <chr>        <chr>   <chr>  <dbl> <chr> <dbl> <chr>   
 1 AFG      Central and … Low income … Afghan… DHS     2015 <NA>     NA Ethnici…
 2 AFG      Central and … Low income … Afghan… DHS     2015 <NA>     NA Ethnici…
 3 AFG      Central and … Low income … Afghan… DHS     2015 <NA>     NA Ethnici…
 4 AFG      Central and … Low income … Afghan… DHS     2015 <NA>     NA Ethnici…
 5 AFG      Central and … Low income … Afghan… DHS     2015 <NA>     NA Ethnici…
 6 AFG      Central and … Low income … Afghan… DHS     2015 <NA>     NA Ethnici…
 7 AFG      Central and … Low income … Afghan… DHS     2015 <NA>     NA Ethnici…
 8 AFG      Central and … Low income … Afghan… DHS     2015 <NA>     NA Ethnici…
 9 AFG      Central and … Low income … Afghan… DHS     2015 <NA>     NA Location
10 AFG      Central and … Low income … Afghan… DHS     2015 <NA>     NA Location
# ℹ 858 more rows
# ℹ 77 more variables: Sex <chr>, Location <chr>, Wealth <chr>, Region <chr>,
#   Ethnicity <chr>, Religion <chr>, Language <chr>, comp_prim_v2_m <dbl>,
#   comp_lowsec_v2_m <dbl>, comp_upsec_v2_m <dbl>, comp_prim_1524_m <dbl>,
#   comp_lowsec_1524_m <dbl>, comp_upsec_2029_m <dbl>, eduyears_2024_m <dbl>,
#   edu2_2024_m <dbl>, edu4_2024_m <dbl>, eduout_prim_m <dbl>,
#   eduout_lowsec_m <dbl>, eduout_upsec_m <dbl>, comp_prim_v2_no <dbl>, …

grouped <- data |>
  group_by(iso_code, Sex) |>
  summarise(mean = mean(comp_prim_v2_m, na.rm = TRUE), count = n())

`summarise()` has grouped output by 'iso_code'. You can override using the
`.groups` argument.

grouped

# A tibble: 531 × 4
# Groups:   iso_code [177]
   iso_code Sex       mean count
   <chr>    <chr>    <dbl> <int>
 1 AFG      Female   0.348   278
 2 AFG      Male     0.661   279
 3 AFG      <NA>     0.520   311
 4 AGO      Female   0.462   116
 5 AGO      Male     0.560   114
 6 AGO      <NA>     0.531   142
 7 ALB      Female   0.976   291
 8 ALB      Male     0.973   288
 9 ALB      <NA>     0.974   398
10 ARE      Female NaN       446
# ℹ 521 more rows

grouped2 <- data |>
  group_by(iso_code) |>
  summarise(mean_primary_completion_rate = mean(comp_prim_v2_m, na.rm = TRUE),
            mean_educ_years_20_24 = mean(eduyears_2024_m, na.rm = TRUE),
            attend_higher_education = mean(attend_higher_1822_m, na.rm = TRUE),
            count = n())
grouped2

# A tibble: 177 × 5
   iso_code mean_primary_completi…¹ mean_educ_years_20_24 attend_higher_educat…²
   <chr>                      <dbl>                 <dbl>                  <dbl>
 1 AFG                        0.510                  4.55                0.0784 
 2 AGO                        0.519                  6.34              NaN      
 3 ALB                        0.974                 10.4                 0.150  
 4 ARE                      NaN                    NaN                 NaN      
 5 ARG                        0.963                 11.4                 0.411  
 6 ARM                        0.994                 10.8                 0.194  
 7 AUS                        0.993                 12.4               NaN      
 8 AUT                      NaN                    NaN                 NaN      
 9 AZE                        0.975                 10.8                 0.132  
10 BDI                        0.382                  4.26                0.00429
# ℹ 167 more rows
# ℹ abbreviated names: ¹​mean_primary_completion_rate, ²​attend_higher_education
# ℹ 1 more variable: count <int>
…
lm_model <- 
  linear_reg() %>% 
  set_engine("lm")

grouped2 <- data |>
  group_by(iso_code) |>
  summarise(mean_primary_completion_rate = mean(comp_prim_v2_m, na.rm = TRUE),
            mean_educ_years_20_24 = mean(eduyears_2024_m, na.rm = TRUE),
            attend_higher_education = mean(attend_higher_1822_m, na.rm = TRUE),
            count = n()) |>
  ungroup()

grouped2

# A tibble: 177 × 5
   iso_code mean_primary_completi…¹ mean_educ_years_20_24 attend_higher_educat…²
   <chr>                      <dbl>                 <dbl>                  <dbl>
 1 AFG                        0.510                  4.55                0.0784 
 2 AGO                        0.519                  6.34              NaN      
 3 ALB                        0.974                 10.4                 0.150  
 4 ARE                      NaN                    NaN                 NaN      
 5 ARG                        0.963                 11.4                 0.411  
 6 ARM                        0.994                 10.8                 0.194  
 7 AUS                        0.993                 12.4               NaN      
 8 AUT                      NaN                    NaN                 NaN      
 9 AZE                        0.975                 10.8                 0.132  
10 BDI                        0.382                  4.26                0.00429
# ℹ 167 more rows
# ℹ abbreviated names: ¹​mean_primary_completion_rate, ²​attend_higher_education
# ℹ 1 more variable: count <int>
…
broom::glance(lm_form_fit)

# A tibble: 1 × 12
  r.squared adj.r.squared sigma statistic  p.value    df logLik   AIC   BIC
      <dbl>         <dbl> <dbl>     <dbl>    <dbl> <dbl>  <dbl> <dbl> <dbl>
1     0.730         0.727 0.128      233. 3.54e-26     1   56.8 -108. -100.
# ℹ 3 more variables: deviance <dbl>, df.residual <int>, nobs <int>

broom::augment(lm_form_fit, new_data = grouped2)

# A tibble: 177 × 7
     .pred   .resid iso_code mean_primary_completion_rate mean_educ_years_20_24
     <dbl>    <dbl> <chr>                           <dbl>                 <dbl>
 1   0.451   0.0594 AFG                             0.510                  4.55
 2   0.579  -0.0591 AGO                             0.519                  6.34
 3   0.867   0.107  ALB                             0.974                 10.4 
 4 NaN     NaN      ARE                           NaN                    NaN   
 5   0.939   0.0237 ARG                             0.963                 11.4 
 6   0.895   0.0996 ARM                             0.994                 10.8 
 7   1.01   -0.0179 AUS                             0.993                 12.4 
 8 NaN     NaN      AUT                           NaN                    NaN   
 9   0.897   0.0790 AZE                             0.975                 10.8 
10   0.430  -0.0486 BDI                             0.382                  4.26
# ℹ 167 more rows
# ℹ 2 more variables: attend_higher_education <dbl>, count <int>
…
