MA [46]15 Final Project - Team 4 - Post 5
…
pisa_summary

# A tibble: 69 × 11
   country  mean_primary_complet…¹ obs_primary_completi…² percent_people_not_i…³
   <chr>                     <dbl>                  <int>                  <dbl>
 1 Albania                   0.974                    230                 0.231 
 2 Argenti…                  0.963                    453                 0.136 
 3 Austral…                  0.993                     87                 0.0944
 4 Austria                 NaN                          0               NaN     
 5 Azerbai…                  0.975                    157                 0.151 
 6 Belgium                 NaN                          0               NaN     
 7 Brazil                    0.811                   4085                 0.164 
 8 Bulgaria                NaN                          0               NaN     
 9 Cambodia                  0.616                    851                 0.583 
10 Canada                    0.997                     97                 0.0367
# ℹ 59 more rows
# ℹ abbreviated names: ¹​mean_primary_completion_rate,
#   ²​obs_primary_completion_rate, ³​percent_people_not_in_primary_school
# ℹ 7 more variables: mean_educ_years_20_24 <dbl>,
#   attend_higher_education <dbl>, number_complete_prim_1524 <dbl>,
#   pisa_overall_mean <dbl>, pisa_math_mean <dbl>, pisa_science_mean <dbl>,
#   pisa_reading_mean <dbl>
…
Here, we can see that the r^2 value is 0.353 which is not a super high r^2 value, so we will continue to refine our modeling in the coming week.

broom::glance(lm_form_fit2)

# A tibble: 1 × 12
  r.squared adj.r.squared sigma statistic p.value    df logLik   AIC   BIC
      <dbl>         <dbl> <dbl>     <dbl>   <dbl> <dbl>  <dbl> <dbl> <dbl>
1     0.353         0.201  40.2      2.32  0.0988     4  -110.  231.  238.
# ℹ 3 more variables: deviance <dbl>, df.residual <int>, nobs <int>

broom::augment(lm_form_fit2, new_data = pisa_summary)

# A tibble: 69 × 13
   .pred .resid country    mean_primary_completion_rate obs_primary_completion…¹
   <dbl>  <dbl> <chr>                             <dbl>                    <int>
 1  418.  -42.3 Albania                           0.974                      230
 2  447.  -41.3 Argentina                         0.963                      453
 3  NaN   NaN   Australia                         0.993                       87
 4  NaN   NaN   Austria                         NaN                            0
 5  406.  -26.1 Azerbaijan                        0.975                      157
 6  NaN   NaN   Belgium                         NaN                            0
 7  379.   24.2 Brazil                            0.811                     4085
 8  NaN   NaN   Bulgaria                        NaN                            0
 9  360.  -12.5 Cambodia                          0.616                      851
10  NaN   NaN   Canada                            0.997                       97
# ℹ 59 more rows
# ℹ abbreviated name: ¹​obs_primary_completion_rate
# ℹ 8 more variables: percent_people_not_in_primary_school <dbl>,
#   mean_educ_years_20_24 <dbl>, attend_higher_education <dbl>,
#   number_complete_prim_1524 <dbl>, pisa_overall_mean <dbl>,
#   pisa_math_mean <dbl>, pisa_science_mean <dbl>, pisa_reading_mean <dbl>
